<?xml version="1.0" encoding="utf-8"?>
<!-- Generator: Adobe Illustrator 20.1.0, SVG Export Plug-In . SVG Version: 6.00 Build 0)  -->
<svg version="1.1" id="Layer_1" xmlns="http://www.w3.org/2000/svg" xmlns:xlink="http://www.w3.org/1999/xlink" x="0px" y="0px"
	 viewBox="0 0 24 24" style="enable-background:new 0 0 24 24;" xml:space="preserve">
<style type="text/css">
	.st0{fill:none;}
	.st1{fill:#060807;}
</style>
<path class="st0" d="M0,0h24v24H0V0z"/>
<g>
	<path class="st1" d="M11.2,7.2c0.3,0.2,0.5,0.3,0.7,0.5c0.2-0.2,0.5-0.4,0.7-0.5c0.4-0.3,0.8-0.5,1.3-0.8c0.4-0.2,0.7-0.4,1.1-0.5
		c-0.1-0.1-0.2-0.2-0.4-0.2c-0.3-0.2-0.6-0.4-0.9-0.5c-0.3-0.1-0.6-0.3-0.9-0.4c-0.3-0.1-0.6-0.2-0.8-0.3c-0.3,0.1-0.5,0.2-0.8,0.3
		c-0.3,0.1-0.6,0.3-0.9,0.4C9.9,5.3,9.6,5.5,9.3,5.7C9.1,5.8,9,5.9,8.9,5.9C9.3,6.1,9.6,6.3,10,6.5C10.4,6.7,10.8,6.9,11.2,7.2z"/>
	<path class="st1" d="M6.4,4.9c0.3,0.1,0.7,0.3,1.1,0.4c0,0,0.1,0,0.1,0c0,0,0,0,0,0c0.3-0.2,0.7-0.5,1-0.7c0.4-0.2,0.7-0.4,1-0.6
		C9.8,4,9.9,4,10,3.9c-0.1,0-0.1-0.1-0.2-0.1C8.4,4,7.2,4.4,6,4.8C6.2,4.9,6.3,4.9,6.4,4.9z"/>
	<path class="st1" d="M16.3,5.4C16.3,5.4,16.3,5.4,16.3,5.4c0,0,0.1,0,0.1,0c0.4-0.1,0.8-0.3,1.1-0.4c0.1,0,0.3-0.1,0.4-0.1
		c-1.1-0.5-2.4-0.8-3.8-1c-0.1,0.1-0.1,0.1-0.2,0.1C14,4,14.1,4,14.2,4.1c0.4,0.2,0.7,0.4,1,0.6C15.6,4.9,16,5.1,16.3,5.4z"/>
	<path class="st1" d="M20.1,6c-0.1,0-0.3,0.1-0.5,0.1c-0.4,0.1-1,0.2-1.6,0.4c-0.1,0-0.3,0.1-0.4,0.1c0.1,0.2,0.3,0.3,0.4,0.5
		c0.5,0.6,0.9,1.3,1.1,1.8c0.3,0.6,0.4,1.1,0.5,1.4c0.1,0.4,0.1,0.6,0.1,0.6c0,0.3-0.2,0.6-0.5,0.7c-0.3,0-0.6-0.2-0.7-0.5
		c0,0,0-0.2-0.1-0.5c-0.1-0.3-0.2-0.7-0.5-1.2c-0.2-0.5-0.6-1.1-1-1.6c-0.2-0.3-0.5-0.5-0.7-0.8c-0.2,0.1-0.4,0.1-0.5,0.2
		c-0.4,0.1-0.8,0.3-1.2,0.5c-0.4,0.2-0.8,0.4-1.2,0.6c-0.1,0.1-0.2,0.2-0.3,0.2c0.1,0.1,0.3,0.3,0.4,0.4c0.3,0.3,0.6,0.7,0.9,1
		c0.3,0.3,0.5,0.7,0.7,1c0.4,0.7,0.6,1.3,0.7,1.7c0.1,0.4,0.1,0.8,0.1,0.7c0,0.3-0.2,0.6-0.5,0.6c-0.3,0-0.6-0.2-0.6-0.5
		c0,0,0-0.2-0.1-0.5c-0.1-0.4-0.3-0.9-0.6-1.4c-0.2-0.3-0.4-0.6-0.6-0.9c-0.2-0.3-0.5-0.6-0.8-0.9c-0.2-0.2-0.4-0.3-0.6-0.5
		c-0.2,0.2-0.4,0.3-0.6,0.5c-0.3,0.3-0.6,0.6-0.8,0.9c-0.2,0.3-0.4,0.6-0.6,0.9c-0.3,0.6-0.5,1.1-0.6,1.4c-0.1,0.4-0.1,0.5-0.1,0.5
		c0,0.3-0.3,0.6-0.6,0.5c-0.3,0-0.6-0.3-0.5-0.6c0,0,0-0.3,0.1-0.7c0.1-0.4,0.3-1.1,0.7-1.7c0.2-0.3,0.4-0.7,0.7-1
		c0.2-0.4,0.6-0.7,0.9-1c0.1-0.1,0.3-0.3,0.4-0.4c-0.1-0.1-0.2-0.2-0.3-0.2C10.1,8.2,9.7,8,9.3,7.8C8.9,7.6,8.5,7.4,8.1,7.3
		C7.9,7.2,7.7,7.1,7.5,7.1C7.3,7.3,7,7.6,6.8,7.9C6.4,8.4,6,9,5.8,9.5c-0.2,0.5-0.4,0.9-0.5,1.2c-0.1,0.3-0.1,0.4-0.1,0.5
		c0,0.3-0.3,0.6-0.7,0.5c-0.3,0-0.6-0.3-0.5-0.7c0,0,0-0.2,0.1-0.6C4.3,10,4.4,9.5,4.7,8.9C5,8.4,5.4,7.7,5.9,7.1
		C6,6.9,6.1,6.8,6.3,6.6C6.1,6.6,6,6.6,5.9,6.5C5.2,6.3,4.7,6.2,4.3,6.1C4.1,6.1,4,6,3.9,6c-2.2,1.5-3.6,3.7-3.6,6
		c0,6.2,4.7,8.3,11.7,8.3c7.3,0,11.7-2.1,11.7-8.3C23.7,9.7,22.3,7.5,20.1,6z"/>
</g>
</svg>
