<?xml version="1.0" encoding="utf-8"?>
<!-- Generator: Adobe Illustrator 20.1.0, SVG Export Plug-In . SVG Version: 6.00 Build 0)  -->
<svg version="1.1" id="Layer_1" xmlns="http://www.w3.org/2000/svg" xmlns:xlink="http://www.w3.org/1999/xlink" x="0px" y="0px"
	 viewBox="0 0 48 48" style="enable-background:new 0 0 48 48;" xml:space="preserve">
<style type="text/css">
	.st0{fill:none;}
</style>
<path class="st0" d="M0,0h48v48H0V0z"/>
<path d="M42.8,23.2l-18-18C24.1,4.4,23.1,4,22,4H8C5.8,4,4,5.8,4,8v14c0,1.1,0.4,2.1,1.2,2.8l18,18c0.7,0.7,1.7,1.2,2.8,1.2
	s2.1-0.4,2.8-1.2l14-14c0.7-0.7,1.2-1.7,1.2-2.8S43.5,23.9,42.8,23.2z M11,14c-1.7,0-3-1.3-3-3s1.3-3,3-3s3,1.3,3,3S12.7,14,11,14z
	 M34.5,30.5L26,39.1l-8.5-8.5C16.6,29.6,16,28.4,16,27c0-2.8,2.2-5,5-5c1.4,0,2.6,0.6,3.5,1.5l1.5,1.4l1.5-1.5
	c0.9-0.9,2.2-1.5,3.5-1.5c2.8,0,5,2.2,5,5C36,28.4,35.4,29.6,34.5,30.5z"/>
</svg>
